{
  "images": [
    {
      "id": 40093059,
      "name": "lamp",
      "architecture": "x86",
      "bound_to": null,
      "created": "2021-06-08T06:21:07Z",
      "created_from": null,
      "deleted": null,
      "deprecated": null,
      "description": "lamp",
      "disk_size": 40,
      "image_size": null,
      "labels": {},
      "os_flavor": "ubuntu",
      "os_version": "unknown",
      "protection": {
        "delete": false
      },
      "rapid_deploy": true,
      "status": "available",
      "type": "app"
    },
    {
      "id": 40093134,
      "name": "wordpress",
      "architecture": "x86",
      "bound_to": null,
      "created": "2021-06-08T06:21:42Z",
      "created_from": null,
      "deleted": null,
      "deprecated": null,
      "description": "wordpress",
      "disk_size": 40,
      "image_size": null,
      "labels": {},
      "os_flavor": "ubuntu",
      "os_version": "unknown",
      "protection": {
        "delete": false
      },
      "rapid_deploy": true,
      "status": "available",
      "type": "app"
    },
    {
      "id": 40093140,
      "name": "jitsi",
      "architecture": "x86",
      "bound_to": null,
      "created": "2021-06-08T06:21:47Z",
      "created_from": null,
      "deleted": null,
      "deprecated": null,
      "description": "jitsi",
      "disk_size": 40,
      "image_size": null,
      "labels": {},
      "os_flavor": "ubuntu",
      "os_version": "unknown",
      "protection": {
        "delete": false
      },
      "rapid_deploy": true,
      "status": "available",
      "type": "app"
    },
    {
      "id": 40093190,
      "name": "nextcloud",
      "architecture": "x86",
      "bound_to": null,
      "created": "2021-06-08T06:22:07Z",
      "created_from": null,
      "deleted": null,
      "deprecated": null,
      "description": "nextcloud",
      "disk_size": 40,
      "image_size": null,
      "labels": {},
      "os_flavor": "ubuntu",
      "os_version": "unknown",
      "protection": {
        "delete": false
      },
      "rapid_deploy": true,
      "status": "available",
      "type": "app"
    },
    {
      "id": 40093247,
      "name": "docker-ce",
      "architecture": "x86",
      "bound_to": null,
      "created": "2021-06-08T06:22:47Z",
      "created_from": null,
      "deleted": null,
      "deprecated": null,
      "description": "docker-ce",
      "disk_size": 40,
      "image_size": null,
      "labels": {},
      "os_flavor": "ubuntu",
      "os_version": "unknown",
      "protection": {
        "delete": false
      },
      "rapid_deploy": true,
      "status": "available",
      "type": "app"
    },
    {
      "id": 40093435,
      "name": "gitlab",
      "architecture": "x86",
      "bound_to": null,
      "created": "2021-06-08T06:24:08Z",
      "created_from": null,
      "deleted": null,
      "deprecated": null,
      "description": "gitlab",
      "disk_size": 40,
      "image_size": null,
      "labels": {},
      "os_flavor": "ubuntu",
      "os_version": "unknown",
      "protection": {
        "delete": false
      },
      "rapid_deploy": true,
      "status": "available",
      "type": "app"
    },
    {
      "id": 45557056,
      "name": "debian-11",
      "architecture": "x86",
      "bound_to": null,
      "created": "2021-08-16T11:12:01Z",
      "created_from": null,
      "deleted": null,
      "deprecated": null,
      "description": "Debian 11",
      "disk_size": 5,
      "image_size": null,
      "labels": {},
      "os_flavor": "debian",
      "os_version": "11",
      "protection": {
        "delete": false
      },
      "rapid_deploy": true,
      "status": "available",
      "type": "system"
    },
    {
      "id": 45780948,
      "name": "rocky-8",
      "architecture": "x86",
      "bound_to": null,
      "created": "2021-08-19T06:30:23Z",
      "created_from": null,
      "deleted": null,
      "deprecated": null,
      "description": "Rocky Linux 8",
      "disk_size": 5,
      "image_size": null,
      "labels": {},
      "os_flavor": "rocky",
      "os_version": "8",
      "protection": {
        "delete": false
      },
      "rapid_deploy": true,
      "status": "available",
      "type": "system"
    },
    {
      "id": 59752342,
      "name": "centos-stream-9",
      "architecture": "x86",
      "bound_to": null,
      "created": "2022-01-27T07:52:03Z",
      "created_from": null,
      "deleted": null,
      "deprecated": null,
      "description": "CentOS Stream 9",
      "disk_size": 5,
      "image_size": null,
      "labels": {},
      "os_flavor": "centos",
      "os_version": "Stream 9",
      "protection": {
        "delete": false
      },
      "rapid_deploy": true,
      "status": "available",
      "type": "system"
    },
    {
      "id": 67794396,
      "name": "ubuntu-22.04",
      "architecture": "x86",
      "bound_to": null,
      "created": "2022-04-21T13:32:38Z",
      "created_from": null,
      "deleted": null,
      "deprecated": null,
      "description": "Ubuntu 22.04",
      "disk_size": 5,
      "image_size": null,
      "labels": {},
      "os_flavor": "ubuntu",
      "os_version": "22.04",
      "protection": {
        "delete": false
      },
      "rapid_deploy": true,
      "status": "available",
      "type": "system"
    },
    {
      "id": 73721460,
      "name": "prometheus-grafana",
      "architecture": "x86",
      "bound_to": null,
      "created": "2022-06-20T08:27:16Z",
      "created_from": null,
      "deleted": null,
      "deprecated": null,
      "description": "prometheus-grafana",
      "disk_size": 40,
      "image_size": null,
      "labels": {},
      "os_flavor": "ubuntu",
      "os_version": "unknown",
      "protection": {
        "delete": false
      },
      "rapid_deploy": true,
      "status": "available",
      "type": "app"
    },
    {
      "id": 76766499,
      "name": "rocky-9",
      "architecture": "x86",
      "bound_to": null,
      "created": "2022-07-20T13:55:52Z",
      "created_from": null,
      "deleted": null,
      "deprecated": null,
      "description": "Rocky Linux 9",
      "disk_size": 5,
      "image_size": null,
      "labels": {},
      "os_flavor": "rocky",
      "os_version": "9",
      "protection": {
        "delete": false
      },
      "rapid_deploy": true,
      "status": "available",
      "type": "system"
    },
    {
      "id": 80379320,
      "name": "wireguard",
      "architecture": "x86",
      "bound_to": null,
      "created": "2022-08-24T14:08:55Z",
      "created_from": null,
      "deleted": null,
      "deprecated": null,
      "description": "wireguard",
      "disk_size": 40,
      "image_size": null,
      "labels": {},
      "os_flavor": "ubuntu",
      "os_version": "unknown",
      "protection": {
        "delete": false
      },
      "rapid_deploy": true,
      "status": "available",
      "type": "app"
    },
    {
      "id": 101588646,
      "name": "owncast",
      "architecture": "x86",
      "bound_to": null,
      "created": "2023-03-01T10:21:43Z",
      "created_from": null,
      "deleted": null,
      "deprecated": null,
      "description": "owncast",
      "disk_size": 40,
      "image_size": null,
      "labels": {},
      "os_flavor": "ubuntu",
      "os_version": "unknown",
      "protection": {
        "delete": false
      },
      "rapid_deploy": true,
      "status": "available",
      "type": "app"
    },
    {
      "id": 101588775,
      "name": "photoprism",
      "architecture": "x86",
      "bound_to": null,
      "created": "2023-03-01T10:22:15Z",
      "created_from": null,
      "deleted": null,
      "deprecated": null,
      "description": "photoprism",
      "disk_size": 40,
      "image_size": null,
      "labels": {},
      "os_flavor": "ubuntu",
      "os_version": "unknown",
      "protection": {
        "delete": false
      },
      "rapid_deploy": true,
      "status": "available",
      "type": "app"
    },
    {
      "id": 102456737,
      "name": "rustdesk",
      "architecture": "x86",
      "bound_to": null,
      "created": "2023-03-08T14:01:35Z",
      "created_from": null,
      "deleted": null,
      "deprecated": null,
      "description": "rustdesk",
      "disk_size": 40,
      "image_size": null,
      "labels": {},
      "os_flavor": "ubuntu",
      "os_version": "unknown",
      "protection": {
        "delete": false
      },
      "rapid_deploy": true,
      "status": "available",
      "type": "app"
    },
    {
      "id": 103907339,
      "name": "centos-stream-9",
      "architecture": "arm",
      "bound_to": null,
      "created": "2023-03-20T10:06:35Z",
      "created_from": null,
      "deleted": null,
      "deprecated": null,
      "description": "CentOS Stream 9",
      "disk_size": 5,
      "image_size": null,
      "labels": {},
      "os_flavor": "centos",
      "os_version": "Stream 9",
      "protection": {
        "delete": false
      },
      "rapid_deploy": true,
      "status": "available",
      "type": "system"
    },
    {
      "id": 103907373,
      "name": "debian-11",
      "architecture": "arm",
      "bound_to": null,
      "created": "2023-03-20T10:06:43Z",
      "created_from": null,
      "deleted": null,
      "deprecated": null,
      "description": "Debian 11",
      "disk_size": 5,
      "image_size": null,
      "labels": {},
      "os_flavor": "debian",
      "os_version": "11",
      "protection": {
        "delete": false
      },
      "rapid_deploy": true,
      "status": "available",
      "type": "system"
    },
    {
      "id": 103907722,
      "name": "rocky-8",
      "architecture": "arm",
      "bound_to": null,
      "created": "2023-03-20T10:08:25Z",
      "created_from": null,
      "deleted": null,
      "deprecated": null,
      "description": "Rocky Linux 8",
      "disk_size": 5,
      "image_size": null,
      "labels": {},
      "os_flavor": "rocky",
      "os_version": "8",
      "protection": {
        "delete": false
      },
      "rapid_deploy": true,
      "status": "available",
      "type": "system"
    },
    {
      "id": 103907769,
      "name": "rocky-9",
      "architecture": "arm",
      "bound_to": null,
      "created": "2023-03-20T10:08:36Z",
      "created_from": null,
      "deleted": null,
      "deprecated": null,
      "description": "Rocky Linux 9",
      "disk_size": 5,
      "image_size": null,
      "labels": {},
      "os_flavor": "rocky",
      "os_version": "9",
      "protection": {
        "delete": false
      },
      "rapid_deploy": true,
      "status": "available",
      "type": "system"
    },
    {
      "id": 103908130,
      "name": "ubuntu-22.04",
      "architecture": "arm",
      "bound_to": null,
      "created": "2023-03-20T10:10:04Z",
      "created_from": null,
      "deleted": null,
      "deprecated": null,
      "description": "Ubuntu 22.04",
      "disk_size": 5,
      "image_size": null,
      "labels": {},
      "os_flavor": "ubuntu",
      "os_version": "22.04",
      "protection": {
        "delete": false
      },
      "rapid_deploy": true,
      "status": "available",
      "type": "system"
    },
    {
      "id": 104788983,
      "name": "alma-8",
      "architecture": "x86",
      "bound_to": null,
      "created": "2023-03-27T11:32:49Z",
      "created_from": null,
      "deleted": null,
      "deprecated": null,
      "description": "AlmaLinux 8",
      "disk_size": 5,
      "image_size": null,
      "labels": {},
      "os_flavor": "alma",
      "os_version": "8",
      "protection": {
        "delete": false
      },
      "rapid_deploy": true,
      "status": "available",
      "type": "system"
    },
    {
      "id": 104788996,
      "name": "alma-9",
      "architecture": "x86",
      "bound_to": null,
      "created": "2023-03-27T11:33:04Z",
      "created_from": null,
      "deleted": null,
      "deprecated": null,
      "description": "AlmaLinux 9",
      "disk_size": 5,
      "image_size": null,
      "labels": {},
      "os_flavor": "alma",
      "os_version": "9",
      "protection": {
        "delete": false
      },
      "rapid_deploy": true,
      "status": "available",
      "type": "system"
    },
    {
      "id": 105887536,
      "name": "jitsi",
      "architecture": "arm",
      "bound_to": null,
      "created": "2023-04-05T07:53:09Z",
      "created_from": null,
      "deleted": null,
      "deprecated": null,
      "description": "jitsi",
      "disk_size": 40,
      "image_size": null,
      "labels": {},
      "os_flavor": "ubuntu",
      "os_version": "unknown",
      "protection": {
        "delete": false
      },
      "rapid_deploy": true,
      "status": "available",
      "type": "app"
    },
    {
      "id": 105888084,
      "name": "owncast",
      "architecture": "arm",
      "bound_to": null,
      "created": "2023-04-05T09:57:13Z",
      "created_from": null,
      "deleted": null,
      "deprecated": null,
      "description": "owncast",
      "disk_size": 40,
      "image_size": null,
      "labels": {},
      "os_flavor": "ubuntu",
      "os_version": "unknown",
      "protection": {
        "delete": false
      },
      "rapid_deploy": true,
      "status": "available",
      "type": "app"
    }
  ],
  "meta": {
    "pagination": {
      "last_page": 3,
      "next_page": 2,
      "page": 1,
      "per_page": 25,
      "previous_page": null,
      "total_entries": 54
    }
  }
}
